<?xml version="1.0" encoding="utf-8"?>
<!-- Generator: Adobe Illustrator 19.2.1, SVG Export Plug-In . SVG Version: 6.00 Build 0)  -->
<svg version="1.1" id="Слой_1" xmlns="http://www.w3.org/2000/svg" xmlns:xlink="http://www.w3.org/1999/xlink" x="0px" y="0px"
	 viewBox="0 0 85.9 83.5" style="enable-background:new 0 0 85.9 83.5;" xml:space="preserve">
<style type="text/css">
	.st0{fill:#FFFFFF;}
	.st1{fill:#00AFF0;}
	.st2{fill:#464646;}
</style>
<g transform="translate(783 250)">
	<path class="st0" d="M-740-247.6c21.7,0,39.3,17.7,39.3,39.4s-17.7,39.3-39.4,39.3s-39.3-17.7-39.3-39.4
		C-779.3-230-761.7-247.6-740-247.6 M-740-250c-23.1,0-41.8,18.6-41.8,41.7s18.6,41.8,41.7,41.8c23.1,0,41.8-18.6,41.8-41.7
		c0,0,0-0.1,0-0.1C-698.3-231.3-717-250-740-250z"/>
	<path class="st0" d="M-729.6-167.7h-44.3c-3.6,0-6.5-2.9-6.5-6.5c0-3.6,2.9-6.5,6.5-6.5h44.4c3.6,0,6.5,2.9,6.5,6.5c0,0,0,0,0,0
		C-723-170.6-726-167.7-729.6-167.7z"/>
	<path class="st0" d="M-775.2-180.7v-5.3h2.6v-7.8h15.6v7.8h28.7v5.3H-775.2z"/>
	<path class="st0" d="M-719.1-235.5h-5.2l-20.9,20.8l11.7,11.8l11.8-20.9l18.2,32.6h3.9v-3.9L-719.1-235.5z"/>
	<path class="st0" d="M-751.7-199v-15.7h-10.5v20.9h5.2v7.8h23.5v-7.8h-13C-749.4-193.8-751.7-196.1-751.7-199
		C-751.7-199-751.7-199-751.7-199z"/>
	<path class="st1" d="M-745.2-214.7h-6.5v15.7c0,2.9,2.3,5.2,5.1,5.2c0,0,0,0,0.1,0h13v-9.1C-733.5-209.4-738.7-214.7-745.2-214.7
		C-745.2-214.7-745.2-214.7-745.2-214.7z"/>
	<path class="st0" d="M-717.8-191.2l-3.9-3.9h-1.3c0,6.5,5.3,14.4,11.7,14.4c6.5,0,11.7-4,11.7-10.4L-717.8-191.2L-717.8-191.2z"/>
	<path class="st2" d="M-729.6-166.5h-44.3c-4.3,0-7.7-3.4-7.7-7.7c0-4.3,3.4-7.7,7.7-7.7h44.4c4.3,0,7.7,3.4,7.7,7.7
		C-721.8-169.9-725.3-166.5-729.6-166.5z M-773.9-179.5c-2.9,0-5.3,2.4-5.3,5.3c0,2.9,2.4,5.3,5.3,5.3h44.4c2.9,0,5.3-2.4,5.2-5.3
		s-2.4-5.3-5.3-5.2l0,0H-773.9z"/>
	<path class="st2" d="M-771.3-171.7c-1.4,0-2.5-1.1-2.5-2.5c0-1.4,1.1-2.5,2.5-2.5c1.4,0,2.5,1.1,2.5,2.5
		C-768.8-172.8-769.9-171.7-771.3-171.7C-771.3-171.7-771.3-171.7-771.3-171.7z M-771.3-174.3c-0.1,0-0.1,0-0.1,0.1
		c0,0.1,0.2,0.1,0.2,0C-771.2-174.3-771.2-174.3-771.3-174.3z"/>
	<path class="st2" d="M-763.5-171.7c-1.4,0-2.5-1.1-2.5-2.5c0-1.4,1.1-2.5,2.5-2.5s2.5,1.1,2.5,2.5
		C-761-172.8-762.1-171.7-763.5-171.7C-763.5-171.7-763.5-171.7-763.5-171.7z M-763.5-174.3c-0.1,0-0.1,0-0.1,0.1
		c0,0.1,0.2,0.1,0.2,0C-763.4-174.3-763.4-174.3-763.5-174.3z"/>
	<path class="st2" d="M-755.7-171.7c-1.4,0-2.5-1.1-2.5-2.5c0-1.4,1.1-2.5,2.5-2.5c1.4,0,2.5,1.1,2.5,2.5
		C-753.2-172.8-754.3-171.7-755.7-171.7C-755.7-171.7-755.7-171.7-755.7-171.7z M-755.7-174.3c-0.1,0-0.1,0-0.1,0.1
		c0,0.1,0.2,0.1,0.2,0C-755.5-174.3-755.6-174.3-755.7-174.3z"/>
	<path class="st2" d="M-747.8-171.7c-1.4,0-2.5-1.1-2.5-2.5c0-1.4,1.1-2.5,2.5-2.5c1.4,0,2.5,1.1,2.5,2.5
		C-745.3-172.8-746.4-171.7-747.8-171.7z M-747.8-174.3c-0.1,0-0.1,0-0.1,0.1c0,0.1,0.2,0.1,0.2,0
		C-747.7-174.3-747.7-174.3-747.8-174.3C-747.8-174.3-747.8-174.3-747.8-174.3z"/>
	<path class="st2" d="M-740-171.7c-1.4,0-2.5-1.1-2.5-2.5c0-1.4,1.1-2.5,2.5-2.5s2.5,1.1,2.5,2.5
		C-737.5-172.8-738.6-171.7-740-171.7C-740-171.7-740-171.7-740-171.7z M-740-174.3c-0.1,0-0.1,0-0.1,0.1c0,0.1,0.2,0.1,0.2,0
		C-739.9-174.3-739.9-174.3-740-174.3z"/>
	<path class="st2" d="M-732.2-171.7c-1.4,0-2.5-1.1-2.5-2.5c0-1.4,1.1-2.5,2.5-2.5c1.4,0,2.5,1.1,2.5,2.5
		C-729.7-172.8-730.8-171.7-732.2-171.7C-732.2-171.7-732.2-171.7-732.2-171.7z M-732.2-174.3c-0.1,0-0.1,0-0.1,0.1
		c0,0.1,0.2,0.1,0.2,0C-732.1-174.3-732.1-174.3-732.2-174.3z"/>
	<path class="st2" d="M-775.2-179.5c-0.6,0-1.2-0.5-1.2-1.1c0,0,0-0.1,0-0.1v-5.2c0-0.6,0.5-1.2,1.1-1.2c0,0,0.1,0,0.1,0h6.5
		c0.7,0,1.2,0.5,1.2,1.2c0,0.7-0.5,1.2-1.2,1.2h-5.3v4C-774-180.1-774.6-179.5-775.2-179.5z"/>
	<path class="st2" d="M-728.3-179.5c-0.6,0-1.2-0.5-1.2-1.1c0,0,0-0.1,0-0.1v-4H-757c-0.6,0-1.2-0.5-1.2-1.1c0,0,0-0.1,0-0.1v-6.6
		h-13.2v6.6c0,0.7-0.5,1.2-1.2,1.2c-0.7,0-1.2-0.5-1.2-1.2v-7.8c0-0.6,0.5-1.2,1.1-1.2c0,0,0.1,0,0.1,0h15.6c0.6,0,1.2,0.5,1.2,1.1
		c0,0,0,0.1,0,0.1v6.6h27.5c0.6,0,1.2,0.5,1.2,1.1c0,0,0,0.1,0,0.1v5.2C-727.1-180-727.6-179.5-728.3-179.5z"/>
	<path class="st2" d="M-733.5-184.8H-757c-0.6,0-1.2-0.5-1.2-1.1c0,0,0-0.1,0-0.1v-6.6h-4c-0.6,0-1.2-0.5-1.2-1.1c0,0,0-0.1,0-0.1
		v-20.9c0-0.6,0.5-1.2,1.1-1.2c0,0,0.1,0,0.1,0h17c7.1,0,12.9,5.8,12.9,12.9v17C-732.3-185.4-732.8-184.8-733.5-184.8
		C-733.4-184.8-733.5-184.8-733.5-184.8z M-755.8-187.2h21.1v-15.7c0-5.8-4.7-10.5-10.5-10.5l0,0H-761v18.5h4c0.6,0,1.2,0.5,1.2,1.1
		c0,0,0,0.1,0,0.1V-187.2z"/>
	<path class="st2" d="M-740-201.7c-0.6,0-1.2-0.5-1.2-1.1c0,0,0-0.1,0-0.1c0-2.2-1.8-4-4-4c-0.7,0-1.2-0.5-1.2-1.2
		c0-0.7,0.5-1.2,1.2-1.2l0,0c3.5,0,6.4,2.9,6.4,6.4C-738.8-202.2-739.3-201.7-740-201.7z"/>
	<path class="st2" d="M-758.3-208.3h-3.9c-0.7,0-1.2-0.5-1.2-1.2c0-0.7,0.5-1.2,1.2-1.2h3.9c0.7,0,1.2,0.5,1.2,1.2
		C-757.1-208.8-757.6-208.3-758.3-208.3z"/>
	<path class="st2" d="M-758.3-203h-3.9c-0.7,0-1.2-0.5-1.2-1.2c0-0.7,0.5-1.2,1.2-1.2h3.9c0.7,0,1.2,0.5,1.2,1.2
		C-757.1-203.5-757.6-203-758.3-203z"/>
	<path class="st2" d="M-758.3-197.8h-3.9c-0.7,0-1.2-0.5-1.2-1.2c0-0.7,0.5-1.2,1.2-1.2h3.9c0.7,0,1.2,0.5,1.2,1.2
		C-757.1-198.3-757.6-197.8-758.3-197.8z"/>
	<path class="st2" d="M-703.5-190c-0.4,0-0.8-0.2-1-0.6l-17.2-30.8l-10.7,19c-0.3,0.6-1,0.8-1.6,0.5c0,0,0,0,0,0
		c-0.6-0.3-0.8-1-0.5-1.6l11.7-20.9c0.2-0.4,0.6-0.6,1-0.6l0,0c0.4,0,0.8,0.2,1,0.6l18.3,32.6c0.3,0.6,0.1,1.3-0.5,1.6c0,0,0,0,0,0
		C-703.1-190-703.3-190-703.5-190z"/>
	<path class="st2" d="M-711.3-179.5c-7.2,0-12.9-8.5-12.9-15.5c0-0.6,0.5-1.2,1.1-1.2c0,0,0.1,0,0.1,0h1.3c0.3,0,0.6,0.1,0.8,0.3
		l3.6,3.6h16.6v-2.4l-19.2-39.6h-4l-20.5,20.5c-0.5,0.5-1.2,0.5-1.7,0c-0.5-0.5-0.5-1.2,0-1.7l20.9-20.9c0.2-0.2,0.5-0.3,0.8-0.3
		h5.2c0.5,0,0.9,0.3,1.1,0.7l19.6,40.4c0.1,0.2,0.1,0.3,0.1,0.5v3.9C-698.4-184.3-703.7-179.5-711.3-179.5z M-721.7-193.4
		c0.8,5.5,5.3,11.5,10.4,11.5c5.7,0,9.9-3.3,10.5-8.1h-17c-0.3,0-0.6-0.1-0.8-0.3L-721.7-193.4z"/>
	<path class="st2" d="M-733.5-192.6h-13c-3.5,0-6.4-2.9-6.4-6.4v-15.7c0-0.7,0.5-1.2,1.2-1.2c0.7,0,1.2,0.5,1.2,1.2l0,0v15.7
		c0,2.2,1.8,4,4,4h13c0.7,0,1.2,0.5,1.2,1.2S-732.8-192.6-733.5-192.6z"/>
	<path class="st2" d="M-698.3-166.5h-83.5c-0.7,0-1.2-0.5-1.2-1.2c0-0.7,0.5-1.2,1.2-1.2h83.5c0.7,0,1.2,0.5,1.2,1.2
		C-697.1-167-697.6-166.5-698.3-166.5z"/>
</g>
</svg>
