<?xml version="1.0" standalone="no"?>
<!DOCTYPE svg PUBLIC "-//W3C//DTD SVG 20010904//EN"
 "http://www.w3.org/TR/2001/REC-SVG-20010904/DTD/svg10.dtd">
<svg version="1.0" xmlns="http://www.w3.org/2000/svg"
 width="200.000000pt" height="200.000000pt" viewBox="0 0 200.000000 200.000000"
 preserveAspectRatio="xMidYMid meet">
<metadata>
Created by potrace 1.13, written by Peter Selinger 2001-2015
</metadata>
<g transform="translate(0.000000,200.000000) scale(0.100000,-0.100000)"
fill="#000000" stroke="none">
<path d="M460 1342 c-45 -22 -74 -79 -65 -124 9 -44 522 -562 572 -579 63 -20
83 -5 366 279 265 266 267 269 267 311 0 70 -28 107 -96 126 -12 3 -34 1 -50
-5 -16 -6 -125 -106 -241 -223 l-213 -212 -212 212 c-192 191 -243 233 -281
233 -7 0 -28 -8 -47 -18z"/>
</g>
</svg>
