<?xml version="1.0" encoding="utf-8"?>
<!-- Generator: Adobe Illustrator 19.2.1, SVG Export Plug-In . SVG Version: 6.00 Build 0)  -->
<svg version="1.1" id="Слой_1" xmlns="http://www.w3.org/2000/svg" xmlns:xlink="http://www.w3.org/1999/xlink" x="0px" y="0px"
	 viewBox="0 0 7.5 4.6" style="enable-background:new 0 0 7.5 4.6;" xml:space="preserve">
<style type="text/css">
	.st0{fill:#FFFFFF;}
</style>
<g transform="translate(2188 3645) rotate(-90)">
	<path class="st0" d="M3644.2-2180.5c-0.2,0-0.4-0.1-0.5-0.2l-3-3c-0.3-0.3-0.3-0.8,0-1.1l3-3c0.3-0.3,0.8-0.3,1.1,0
		c0.3,0.3,0.3,0.8,0,1.1c0,0,0,0,0,0l-2.5,2.4l2.5,2.5c0.3,0.3,0.3,0.8,0,1.1C3644.6-2180.6,3644.4-2180.5,3644.2-2180.5z"/>
</g>
</svg>
