<?xml version="1.0" encoding="utf-8"?>
<!-- Generator: Adobe Illustrator 19.2.1, SVG Export Plug-In . SVG Version: 6.00 Build 0)  -->
<svg version="1.1" id="Слой_1" xmlns="http://www.w3.org/2000/svg" xmlns:xlink="http://www.w3.org/1999/xlink" x="0px" y="0px"
	 viewBox="0 0 25 25" style="enable-background:new 0 0 25 25;" xml:space="preserve">
<style type="text/css">
	.st0{fill:#00AFF0;}
	.st1{fill:#FFFFFF;}
	.st2{fill:#4D5152;}
	.st3{fill:none;}
</style>
<g transform="translate(1104 610)">
	<path class="st0" d="M-1091.5-610c6.9,0,12.5,5.6,12.5,12.5s-5.6,12.5-12.5,12.5s-12.5-5.6-12.5-12.5S-1098.4-610-1091.5-610z"/>
	<path class="st1" d="M-1084.4-603.9h-14.2v12.8l3.5-3.1h10.7V-603.9z"/>
	<path class="st2" d="M-1098.6-590.4c-0.1,0-0.2,0-0.3-0.1c-0.3-0.1-0.4-0.4-0.4-0.7v-12.7c0-0.4,0.3-0.8,0.8-0.8c0,0,0,0,0,0h14.2
		c0.4,0,0.8,0.3,0.8,0.8c0,0,0,0,0,0v9.6c0,0.4-0.3,0.8-0.8,0.8c0,0,0,0,0,0h-10.6l-3.3,2.9
		C-1098.2-590.5-1098.4-590.4-1098.6-590.4z M-1097.9-603.1v10.3l2.2-2c0.2-0.1,0.4-0.2,0.6-0.2h10v-8.1H-1097.9z"/>
	<line class="st3" x1="-1096" y1="-601.2" x2="-1087" y2="-601.2"/>
	<path class="st2" d="M-1087-600.7h-9c-0.3,0-0.5-0.2-0.5-0.5c0-0.3,0.2-0.5,0.5-0.5h9c0.3,0,0.5,0.2,0.5,0.5
		C-1086.5-600.9-1086.7-600.7-1087-600.7z"/>
	<line class="st3" x1="-1096" y1="-599.1" x2="-1087" y2="-599.1"/>
	<path class="st2" d="M-1087-598.6h-9c-0.3,0-0.5-0.2-0.5-0.5c0-0.3,0.2-0.5,0.5-0.5h9c0.3,0,0.5,0.2,0.5,0.5
		C-1086.5-598.8-1086.7-598.6-1087-598.6z"/>
	<line class="st3" x1="-1096" y1="-597" x2="-1087" y2="-597"/>
	<path class="st2" d="M-1087-596.5h-9c-0.3,0-0.5-0.2-0.5-0.5s0.2-0.5,0.5-0.5h9c0.3,0,0.5,0.2,0.5,0.5S-1086.7-596.5-1087-596.5z"
		/>
</g>
</svg>
