<svg xmlns="http://www.w3.org/2000/svg" viewBox="205 274 50 50">
  <defs>
    <style>
      .cls-1, .cls-2 {
        fill: #b4b4b4;
      }

      .cls-2 {
        opacity: 0;
      }

      .cls-3 {
        fill: none;
        stroke: #fff;
        stroke-linecap: round;
        stroke-linejoin: round;
        stroke-miterlimit: 10;
        stroke-width: 1.5px;
      }
    </style>
  </defs>
  <g id="Group_12" data-name="Group 12" transform="translate(22222 17020)">
    <circle id="ellipse-14" class="cls-1" cx="25" cy="25" r="25" transform="translate(-22017 -16746)"/>
    <g id="Group_11" data-name="Group 11" transform="translate(-22051 -16814)">
      <path id="Path_1" data-name="Path 1" class="cls-2" d="M0,0H30V30H0Z" transform="translate(44 78)"/>
      <g id="Group_5" data-name="Group 5" transform="translate(-98 -56)">
        <rect id="Rectangle_1" data-name="Rectangle 1" class="cls-2" width="26" height="26" transform="translate(146 134)"/>
        <g id="Group_4" data-name="Group 4" transform="translate(149.868 134.75)">
          <g id="Group_3" data-name="Group 3" transform="translate(0.132 0)">
            <g id="Group_2" data-name="Group 2">
              <g id="Group_1" data-name="Group 1">
                <path id="Path_2" data-name="Path 2" class="cls-3" d="M.8.8H15.581L18.8,4.108V25.3h-4V8.179L11.575,4.8H.8Z" transform="translate(-0.8 -0.8)"/>
              </g>
              <path id="Path_3" data-name="Path 3" class="cls-3" d="M11.6,1V5h3.892" transform="translate(2.265 -0.749)"/>
            </g>
          </g>
        </g>
      </g>
      <g id="Group_10" data-name="Group 10" transform="translate(-102 -52)">
        <rect id="Rectangle_2" data-name="Rectangle 2" class="cls-2" width="26" height="26" transform="translate(146 134)"/>
        <g id="Group_9" data-name="Group 9" transform="translate(149.868 134.75)">
          <g id="Group_8" data-name="Group 8" transform="translate(0.132 0)">
            <g id="Group_7" data-name="Group 7">
              <g id="Group_6" data-name="Group 6">
                <path id="Path_4" data-name="Path 4" class="cls-3" d="M.8.8H15.581L18.8,4.108V25.3H.8Z" transform="translate(-0.8 -0.8)"/>
              </g>
              <path id="Path_5" data-name="Path 5" class="cls-3" d="M11.6,1V5h3.892" transform="translate(2.265 -0.749)"/>
            </g>
          </g>
          <line id="Line_1" data-name="Line 1" class="cls-3" x2="9.429" transform="translate(4.42 10.001)"/>
          <line id="Line_2" data-name="Line 2" class="cls-3" x2="9.429" transform="translate(4.42 14.249)"/>
          <line id="Line_3" data-name="Line 3" class="cls-3" x2="9.429" transform="translate(4.42 18.5)"/>
        </g>
      </g>
    </g>
  </g>
</svg>
