<svg id="Group_3592" data-name="Group 3592" xmlns="http://www.w3.org/2000/svg" viewBox="-21809 -1252 25 25">
  <defs>
    <style>
      .cls-1 {
        fill: #00aff0;
      }

      .cls-2 {
        fill: #fff;
      }

      .cls-3 {
        fill: none;
        stroke: #fff;
        stroke-linecap: round;
        stroke-linejoin: round;
        stroke-miterlimit: 10;
        stroke-width: 1.5px;
      }
    </style>
  </defs>
  <g id="group" transform="translate(-21809 -1252)">
    <g id="group-2" data-name="group">
      <path id="path" class="cls-1" d="M12.5,24.2A11.7,11.7,0,1,1,24.3,12.5,11.651,11.651,0,0,1,12.5,24.2Z"/>
      <path id="path-2" data-name="path" class="cls-2" d="M12.5,1.5a11,11,0,1,1-11,11,10.968,10.968,0,0,1,11-11m0-1.5A12.5,12.5,0,1,0,25,12.5,12.5,12.5,0,0,0,12.5,0Z"/>
    </g>
  </g>
  <g id="Group_3591" data-name="Group 3591" transform="translate(-21801.801 -1245.2)">
    <g id="Group_3590" data-name="Group 3590" transform="translate(0.8 0.7)">
      <path id="Path_2505" data-name="Path 2505" class="cls-3" d="M9.635,3.415,3.346,9.577,1.8,8.062,8.089,1.9" transform="translate(-0.769 -0.688)"/>
      <path id="Path_2506" data-name="Path 2506" class="cls-3" d="M3.377,9.515.8,10.626,1.831,8Z" transform="translate(-0.8 -0.626)"/>
      <path id="Path_2507" data-name="Path 2507" class="cls-3" d="M7.9,1.912,8.725,1a1.011,1.011,0,0,1,1.443,0l.1.1a.963.963,0,0,1,0,1.414l-.825.909" transform="translate(-0.58 -0.7)"/>
    </g>
  </g>
</svg>
