<svg xmlns="http://www.w3.org/2000/svg" viewBox="217 270 26 26">
  <defs>
    <style>
      .cls-1 {
        fill: #0096c8;
      }

      .cls-2 {
        fill: #b4b4b4;
        opacity: 0;
      }

      .cls-3 {
        fill: none;
        stroke: #fff;
        stroke-linecap: round;
        stroke-linejoin: round;
        stroke-miterlimit: 10;
        stroke-width: 1.5px;
      }
    </style>
  </defs>
  <circle id="ellipse" class="cls-1" cx="13" cy="13" r="13" transform="translate(217 270)"/>
  <g id="Group_2" data-name="Group 2" transform="translate(-254 200)">
    <g id="Group_1" data-name="Group 1" transform="translate(21892.25 22964.75)">
      <rect id="Rectangle_1" data-name="Rectangle 1" class="cls-2" width="16" height="16" transform="translate(-21416.25 -22889.75)"/>
    </g>
    <line id="Line_1" data-name="Line 1" class="cls-3" x2="10.5" transform="translate(478.75 83)"/>
    <line id="Line_2" data-name="Line 2" class="cls-3" x2="6.5" transform="translate(480.75 88.25)"/>
    <line id="Line_3" data-name="Line 3" class="cls-3" x2="14.5" transform="translate(476.75 77.75)"/>
  </g>
</svg>
