<?xml version="1.0" encoding="utf-8"?>
<!-- Generator: Adobe Illustrator 19.2.1, SVG Export Plug-In . SVG Version: 6.00 Build 0)  -->
<svg version="1.1" id="Слой_1" xmlns="http://www.w3.org/2000/svg" xmlns:xlink="http://www.w3.org/1999/xlink" x="0px" y="0px"
	 viewBox="0 0 25 25" style="enable-background:new 0 0 25 25;" xml:space="preserve">
<style type="text/css">
	.st0{fill:#00AFF0;}
	.st1{fill:#FFFFFF;}
</style>
<g transform="translate(1140 438)">
	<path class="st0" d="M-1127.5-413.8c-6.5,0-11.7-5.2-11.7-11.7s5.2-11.7,11.7-11.7c6.5,0,11.7,5.2,11.7,11.7
		C-1115.8-419-1121-413.8-1127.5-413.8z"/>
	<path class="st1" d="M-1127.5-436.5c6.1,0,11,4.9,11,11s-4.9,11-11,11s-11-4.9-11-11C-1138.5-431.6-1133.6-436.5-1127.5-436.5
		C-1127.5-436.5-1127.5-436.5-1127.5-436.5 M-1127.5-438c-6.9,0-12.5,5.6-12.5,12.5s5.6,12.5,12.5,12.5s12.5-5.6,12.5-12.5
		S-1120.6-438-1127.5-438z"/>
	<path class="st1" d="M-1126-425.2l3.4-3.7l0,0c0.1-0.1,0.1-0.1,0.1-0.2c0-0.2-0.1-0.3-0.3-0.4h-9.3c-0.2,0-0.3,0.2-0.3,0.4
		c0,0.1,0,0.2,0.1,0.3l0,0l3.4,3.7v5.3l0,0c0,0.2,0.1,0.3,0.3,0.4c0.1,0,0.2,0,0.2-0.1l2.3-1.4l0,0c0.1-0.1,0.1-0.1,0.1-0.2l0,0
		C-1126-421.1-1126-425.2-1126-425.2z"/>
</g>
</svg>
