<svg xmlns="http://www.w3.org/2000/svg" viewBox="-17356 6332 17 20.1">
  <defs>
    <style>
      .cls-1 {
        fill: #464646;
      }
    </style>
  </defs>
  <g id="group-98" transform="translate(-17356 6332)">
    <path id="path" class="cls-1" d="M1,10.6a.945.945,0,0,0,1-1,4.012,4.012,0,0,1,4-4h7.6L11.7,7.5a.967.967,0,0,0,0,1.4.967.967,0,0,0,1.4,0l3.6-3.6a.967.967,0,0,0,0-1.4L13.1.3a.967.967,0,0,0-1.4,0,.967.967,0,0,0,0,1.4l1.9,1.9H6a6.018,6.018,0,0,0-6,6A.945.945,0,0,0,1,10.6Z"/>
    <path id="path-2" data-name="path" class="cls-1" d="M16,9.5a.945.945,0,0,0-1,1,4.012,4.012,0,0,1-4,4H3.4l1.9-1.9a.99.99,0,0,0-1.4-1.4L.3,14.8a.967.967,0,0,0,0,1.4l3.6,3.6a1.08,1.08,0,0,0,.7.3,1.08,1.08,0,0,0,.7-.3.967.967,0,0,0,0-1.4L3.4,16.5H11a6.018,6.018,0,0,0,6-6A.945.945,0,0,0,16,9.5Z"/>
  </g>
</svg>
