<?xml version="1.0" encoding="utf-8"?>
<!-- Generator: Adobe Illustrator 19.2.1, SVG Export Plug-In . SVG Version: 6.00 Build 0)  -->
<svg version="1.1" id="Слой_1" xmlns="http://www.w3.org/2000/svg" xmlns:xlink="http://www.w3.org/1999/xlink" x="0px" y="0px"
	 viewBox="0 0 25 25" style="enable-background:new 0 0 25 25;" xml:space="preserve">
<style type="text/css">
	.st0{fill:#464646;}
	.st1{fill:#FFFFFF;}
	.st2{font-family:'Helvetica-Bold';}
	.st3{font-size:12px;}
</style>
<g transform="translate(-1 -300)">
	<circle class="st0" cx="13.5" cy="312.5" r="12.5"/>
	<g transform="translate(1001 428.5)">
		<text transform="matrix(1 0 0 1 -996.163 -112)" class="st1 st2 st3">LM</text>
	</g>
</g>
</svg>
