<svg xmlns="http://www.w3.org/2000/svg" viewBox="-18839 -4218 11.914 11.4">
  <defs>
    <style>
      .cls-1 {
        fill: #fff;
      }
    </style>
  </defs>
  <path id="path" class="cls-1" d="M11.7,10.2,7.4,6.1a4.1,4.1,0,0,0,.7-2.2A4.016,4.016,0,0,0,4,0,3.992,3.992,0,0,0,0,3.9,3.927,3.927,0,0,0,4,7.8a4.756,4.756,0,0,0,2.3-.7l4.3,4.1a.725.725,0,0,0,1,0A.609.609,0,0,0,11.7,10.2ZM1.5,3.9A2.456,2.456,0,0,1,4,1.5,2.456,2.456,0,0,1,6.5,3.9,2.456,2.456,0,0,1,4,6.3,2.456,2.456,0,0,1,1.5,3.9Z" transform="translate(-18839 -4218)"/>
</svg>
