<svg xmlns="http://www.w3.org/2000/svg" viewBox="215 284 30 30">
  <defs>
    <style>
      .cls-1 {
        fill: #b4b4b4;
      }

      .cls-2 {
        fill: #00aff0;
        opacity: 0;
      }

      .cls-3, .cls-4, .cls-5 {
        fill: #fff;
      }

      .cls-3, .cls-4, .cls-6 {
        stroke: #464646;
        stroke-linejoin: round;
        stroke-miterlimit: 10;
        stroke-width: 1.5px;
      }

      .cls-4, .cls-6 {
        stroke-linecap: round;
      }

      .cls-6 {
        fill: none;
      }
    </style>
  </defs>
  <g id="Group_4" data-name="Group 4" transform="translate(-915 -157)">
    <circle id="ellipse" class="cls-1" cx="15" cy="15" r="15" transform="translate(1130 441)"/>
    <g id="Group_1" data-name="Group 1" transform="translate(439 296)">
      <rect id="Rectangle_1" data-name="Rectangle 1" class="cls-2" width="20" height="20" transform="translate(696 150)"/>
      <path id="Path_1" data-name="Path 1" class="cls-3" d="M12.4,12.8l6.3,3.556v1.778c0,1.455-.9,2.667-1.8,2.667H2.5c-.9,0-1.8-1.212-1.8-2.667V16.356L7,12.8" transform="translate(696.3 148.199)"/>
      <path id="Path_2" data-name="Path 2" class="cls-4" d="M15.2,5.838c0,3.191-1.8,5.962-4.5,5.962S6.2,9.029,6.2,5.838,7.1.8,10.7.8,15.2,2.563,15.2,5.838Z" transform="translate(695.3 150.2)"/>
    </g>
    <g id="Group_3" data-name="Group 3" transform="translate(5498 2747)">
      <circle id="Ellipse_1" data-name="Ellipse 1" class="cls-5" cx="5" cy="5" r="5" transform="translate(-4348 -2306)"/>
      <g id="Group_2" data-name="Group 2" transform="translate(-4346.125 -2304.125)">
        <line id="Line_1" data-name="Line 1" class="cls-6" y2="6.25" transform="translate(3.125)"/>
        <line id="Line_2" data-name="Line 2" class="cls-6" x2="6.25" transform="translate(0 3.125)"/>
      </g>
    </g>
  </g>
</svg>
