<svg xmlns="http://www.w3.org/2000/svg" viewBox="21948 5298 16 16">
  <defs>
    <style>
      .cls-1 {
        fill: #fff;
      }

      .cls-2 {
        fill: none;
        stroke: #464646;
        stroke-linecap: round;
        stroke-linejoin: round;
        stroke-miterlimit: 10;
        stroke-width: 1.5px;
      }
    </style>
  </defs>
  <g id="Group_7747" data-name="Group 7747" transform="translate(21033 8014)">
    <circle id="Ellipse_1242" data-name="Ellipse 1242" class="cls-1" cx="8" cy="8" r="8" transform="translate(915 -2700) rotate(-90)"/>
    <g id="Group_7746" data-name="Group 7746" transform="translate(915.2 -2702) rotate(-90)">
      <g id="Group_7745" data-name="Group 7745">
        <path id="Path_5994" data-name="Path 5994" class="cls-2" d="M11,9.6l-5.1,5L.8,9.6"/>
        <line id="Line_757" data-name="Line 757" class="cls-2" y2="13.8" transform="translate(5.9 0.8)"/>
      </g>
    </g>
  </g>
</svg>
