<svg xmlns="http://www.w3.org/2000/svg" viewBox="215 284 30 30">
  <defs>
    <style>
      .cls-1, .cls-2 {
        fill: #00aff0;
      }

      .cls-2 {
        opacity: 0;
      }

      .cls-3, .cls-4 {
        fill: #fff;
        stroke: #4d5152;
        stroke-linejoin: round;
        stroke-miterlimit: 10;
        stroke-width: 1.5px;
      }

      .cls-4 {
        stroke-linecap: round;
      }
    </style>
  </defs>
  <g id="Group_2" data-name="Group 2" transform="translate(15736 20672)">
    <circle id="ellipse" class="cls-1" cx="15" cy="15" r="15" transform="translate(-15521 -20388)"/>
    <g id="Group_1" data-name="Group 1" transform="translate(-16252 -20533)">
      <rect id="Rectangle_1" data-name="Rectangle 1" class="cls-2" width="20" height="20" transform="translate(736 150)"/>
      <path id="Path_1" data-name="Path 1" class="cls-3" d="M12.4,12.8l6.3,3.556v1.778c0,1.455-.9,2.667-1.8,2.667H2.5c-.9,0-1.8-1.212-1.8-2.667V16.356L7,12.8" transform="translate(736.3 148.199)"/>
      <path id="Path_2" data-name="Path 2" class="cls-4" d="M15.2,5.838c0,3.191-1.8,5.962-4.5,5.962S6.2,9.029,6.2,5.838,7.1.8,10.7.8,15.2,2.563,15.2,5.838Z" transform="translate(735.3 150.2)"/>
    </g>
  </g>
</svg>
