<?xml version="1.0" encoding="utf-8"?>
<!-- Generator: Adobe Illustrator 19.2.0, SVG Export Plug-In . SVG Version: 6.00 Build 0)  -->
<svg version="1.1" id="Capa_1" xmlns="http://www.w3.org/2000/svg" xmlns:xlink="http://www.w3.org/1999/xlink" x="0px" y="0px"
	 viewBox="0 0 512 512" enable-background="new 0 0 512 512" xml:space="preserve">
<g>
	<path fill="#2BABE3" d="M506.9,118.8l-57.1-57.1c-6.8-6.8-17.7-6.8-24.5,0L187.7,299.4L86.6,198.3c-6.8-6.8-17.7-6.8-24.5,0
		L5.1,255.4c-6.8,6.8-6.8,17.7,0,24.5l170.4,170.4c3.4,3.4,7.8,5.1,12.2,5.1c4.4,0,8.9-1.7,12.2-5.1l307-307
		c3.2-3.2,5.1-7.6,5.1-12.2C512,126.4,510.2,122,506.9,118.8z"/>
</g>
</svg>
