<svg xmlns="http://www.w3.org/2000/svg" viewBox="225 277.75 12 12">
  <defs>
    <style>
      .cls-1 {
        fill: #fff;
      }

      .cls-2 {
        fill: none;
        stroke: #464646;
        stroke-linecap: round;
        stroke-linejoin: round;
        stroke-miterlimit: 10;
        stroke-width: 1.5px;
      }
    </style>
  </defs>
  <g id="Group_2" data-name="Group 2" transform="translate(2913.9 -19936.15) rotate(-90)">
    <circle id="Ellipse_1" data-name="Ellipse 1" class="cls-1" cx="6" cy="6" r="6" transform="translate(-20225.9 -2688.9)"/>
    <g id="Group_1" data-name="Group 1" transform="translate(-20226 -2689)">
      <path id="Path_1" data-name="Path 1" class="cls-2" d="M5.1,3.1l3,3-3,3"/>
    </g>
  </g>
</svg>
