<svg xmlns="http://www.w3.org/2000/svg" xmlns:xlink="http://www.w3.org/1999/xlink" viewBox="-8569 -21203 90 90">
  <defs>
    <style>
      .cls-1 {
        fill: url(#linear-gradient);
      }

      .cls-2 {
        clip-path: url(#clip-path);
      }

      .cls-3 {
        fill: url(#linear-gradient-2);
      }

      .cls-4 {
        fill: url(#linear-gradient-3);
      }

      .cls-5 {
        fill: url(#linear-gradient-4);
      }

      .cls-6, .cls-7 {
        fill: none;
      }

      .cls-6 {
        stroke: #95989a;
      }

      .cls-6, .cls-7, .cls-8 {
        stroke-linecap: round;
        stroke-linejoin: round;
        stroke-miterlimit: 10;
        stroke-width: 1.5px;
      }

      .cls-7, .cls-8 {
        stroke: #464646;
      }

      .cls-8 {
        fill: url(#linear-gradient-5);
      }
    </style>
    <linearGradient id="linear-gradient" x1="0.5" y1="1" x2="0.5" gradientUnits="objectBoundingBox">
      <stop offset="0" stop-color="#cd7300"/>
      <stop offset="1" stop-color="#f29105"/>
    </linearGradient>
    <clipPath id="clip-path">
      <circle id="ellipse" cx="45" cy="45" r="45" transform="translate(20 20)"/>
    </clipPath>
    <linearGradient id="linear-gradient-2" x1="0.5" y1="1.005" x2="0.5" y2="0.004" gradientUnits="objectBoundingBox">
      <stop offset="0" stop-color="#787878"/>
      <stop offset="0.082" stop-color="#979797"/>
      <stop offset="0.184" stop-color="#b7b7b7"/>
      <stop offset="0.296" stop-color="#d2d2d2"/>
      <stop offset="0.417" stop-color="#e6e6e6"/>
      <stop offset="0.555" stop-color="#f4f4f4"/>
      <stop offset="0.722" stop-color="#fcfcfc"/>
      <stop offset="1" stop-color="#fff"/>
    </linearGradient>
    <linearGradient id="linear-gradient-3" y1="1.003" y2="0.007" xlink:href="#linear-gradient-2"/>
    <linearGradient id="linear-gradient-4" y1="1.008" y2="0.007" xlink:href="#linear-gradient-2"/>
    <linearGradient id="linear-gradient-5" x1="0.5" y1="0.997" x2="0.5" y2="-0.005" gradientUnits="objectBoundingBox">
      <stop offset="0" stop-color="#0096c8"/>
      <stop offset="1" stop-color="#5fd7f5"/>
    </linearGradient>
  </defs>
  <g id="Group_8045" data-name="Group 8045" transform="translate(0 -316)">
    <circle id="ellipse-2" data-name="ellipse" class="cls-1" cx="45" cy="45" r="45" transform="translate(-8569 -20887)"/>
    <g id="group-699" transform="translate(-9449 -21102)">
      <g id="group" transform="translate(860 195)">
        <g id="group-2" data-name="group" class="cls-2">
          <g id="group-3" data-name="group">
            <path id="path" class="cls-3" d="M95,88.7H35V84.9l1.9-2H93.1l1.9,2Z"/>
            <g id="group-4" data-name="group">
              <path id="path-2" data-name="path" class="cls-4" d="M36.9,82.9,35,81V78.1l1.9-2H93.1l1.9,2V81l-1.9,1.9Z"/>
            </g>
            <g id="group-5" data-name="group">
              <path id="path-3" data-name="path" class="cls-5" d="M36.9,76.1,35,74.2V70.3H95v3.9l-1.9,1.9Z"/>
            </g>
          </g>
          <line id="line" class="cls-6" x1="13.5" y2="13.5" transform="translate(51.5 56.8)"/>
          <line id="line-2" data-name="line" class="cls-7" y1="17.7" transform="translate(65 18.8)"/>
          <line id="line-3" data-name="line" class="cls-7" x2="56.2" transform="translate(36.9 76.1)"/>
          <line id="line-4" data-name="line" class="cls-7" x2="56.2" transform="translate(36.9 82.9)"/>
          <path id="path-4" data-name="path" class="cls-7" d="M60.2,53.9a4.8,4.8,0,0,0,9.6,0A4.887,4.887,0,0,0,65,49V45.1"/>
          <line id="line-5" data-name="line" class="cls-6" x2="13.5" y2="13.5" transform="translate(65 56.8)"/>
          <g id="group-6" data-name="group">
            <path id="path-5" data-name="path" class="cls-7" d="M95,88.7H35V84.9l1.9-2L35,81V78.1l1.9-2L35,74.2V70.3H95v3.9l-1.9,1.9,1.9,2V81l-1.9,1.9,1.9,2Z"/>
          </g>
          <rect id="rectangle" class="cls-8" width="5.8" height="8.7" transform="translate(62.1 36.5)"/>
        </g>
      </g>
    </g>
  </g>
</svg>
