<svg xmlns="http://www.w3.org/2000/svg" viewBox="-23489 -18373 30 30">
  <defs>
    <style>
      .cls-1 {
        fill: #fff;
      }

      .cls-2 {
        fill: #464646;
        font-size: 12px;
        font-family: ProximaNova-Bold, Proxima Nova;
        font-weight: 700;
      }
    </style>
  </defs>
  <g id="Group_9258" data-name="Group 9258" transform="translate(-24711 -18388)">
    <circle id="ellipse" class="cls-1" cx="15" cy="15" r="15" transform="translate(1222 15)"/>
    <g id="group-94" transform="translate(1228 23.6)">
      <text id="John_Smith" data-name="John Smith" class="cls-2" transform="translate(-2)"><tspan x="0.184" y="11">WW</tspan></text>
    </g>
  </g>
</svg>
