<svg xmlns="http://www.w3.org/2000/svg" viewBox="-23709.01 -17119 20.02 20">
  <defs>
    <style>
      .cls-1, .cls-2 {
        fill: #fff;
      }

      .cls-2 {
        stroke: #464646;
        stroke-miterlimit: 10;
        stroke-width: 1.5px;
      }

      .cls-3 {
        fill: #464646;
      }
    </style>
  </defs>
  <g id="Group_10652" data-name="Group 10652" transform="translate(-23746 -17908)">
    <circle id="Ellipse_1948" data-name="Ellipse 1948" class="cls-1" cx="10" cy="10" r="10" transform="translate(37 789)"/>
    <g id="Group_10651" data-name="Group 10651" transform="translate(36.6 793.6)">
      <path id="Path_7043" data-name="Path 7043" class="cls-2" d="M19.4,5.4s-4.054,4.5-9,4.5-9-4.5-9-4.5S5.454.9,10.4.9,19.4,5.4,19.4,5.4Z" transform="translate(0 0)"/>
      <ellipse id="Ellipse_1949" data-name="Ellipse 1949" class="cls-3" cx="3.342" cy="3.542" rx="3.342" ry="3.542" transform="translate(7.058 0.9)"/>
    </g>
  </g>
</svg>
